Name,Date,Timestamp,Employee Type,Employee ID,E Pass Status,Temperature,Attendance Status,Account Status
Siddharth Bhonge,25/07/2020,-,Full Time,123456,Accepted,-,No,FROZEN,
Siddharth Bhonge,25/07/2020,-,Full Time,123456,Accepted,-,No,FROZEN,
Siddharth Bhonge,25/07/2020,-,Full Time,123456,Rejected,-,No,FROZEN,
Siddharth Bhonge,25/07/2020,-,Full Time,123456,Rejected,-,No,FROZEN,
Siddharth Bhonge,25/07/2020,-,Full Time,123456,Accepted,-,No,FROZEN,
Siddharth Bhonge,25/07/2020,-,Full Time,123456,Accepted,-,No,FROZEN,
Siddharth Bhonge,25/07/2020,-,Full Time,123456,Rejected,-,No,FROZEN,
Siddharth Bhonge,25/07/2020,-,Full Time,123456,Rejected,-,No,FROZEN,
Siddharth Bhonge,25/07/2020,-,Full Time,123456,Rejected,-,No,FROZEN,
Siddharth Bhonge,25/07/2020,-,Full Time,123456,Rejected,-,No,FROZEN,
