Siddharth Bhonge,25/07/2020,-,Full Time,123456,Accepted,-,No,<button class='btn btn-sm btn-primary' data-toggle='modal' data-target='#myModal' value=9922998230  onclick = 'modal_fun(this)'>View</button>,<button class='btn btn-sm btn-primary' value=9922998230  onclick = 'freeze(this)'> FREEZE </button>
Siddharth Bhonge,25/07/2020,-,Full Time,123456,Accepted,-,No,<button class='btn btn-sm btn-primary' data-toggle='modal' data-target='#myModal' value=9922998230  onclick = 'modal_fun(this)'>View</button>,<button class='btn btn-sm btn-primary' value=9922998230  onclick = 'freeze(this)'> FREEZE </button>
Siddharth Bhonge,25/07/2020,-,Full Time,123456,Rejected,-,No,<button class='btn btn-sm btn-primary' data-toggle='modal' data-target='#myModal' value=9922998230  onclick = 'modal_fun(this)'>View</button>,<button class='btn btn-sm btn-primary' value=9922998230  onclick = 'freeze(this)'> FREEZE </button>
Siddharth Bhonge,25/07/2020,-,Full Time,123456,Rejected,-,No,<button class='btn btn-sm btn-primary' data-toggle='modal' data-target='#myModal' value=9922998230  onclick = 'modal_fun(this)'>View</button>,<button class='btn btn-sm btn-primary' value=9922998230  onclick = 'freeze(this)'> FREEZE </button>
Siddharth Bhonge,25/07/2020,-,Full Time,123456,Accepted,-,No,<button class='btn btn-sm btn-primary' data-toggle='modal' data-target='#myModal' value=9922998230  onclick = 'modal_fun(this)'>View</button>,<button class='btn btn-sm btn-primary' value=9922998230  onclick = 'freeze(this)'> FREEZE </button>
Siddharth Bhonge,25/07/2020,-,Full Time,123456,Accepted,-,No,<button class='btn btn-sm btn-primary' data-toggle='modal' data-target='#myModal' value=9922998230  onclick = 'modal_fun(this)'>View</button>,<button class='btn btn-sm btn-primary' value=9922998230  onclick = 'freeze(this)'> FREEZE </button>
Siddharth Bhonge,25/07/2020,-,Full Time,123456,Rejected,-,No,<button class='btn btn-sm btn-primary' data-toggle='modal' data-target='#myModal' value=9922998230  onclick = 'modal_fun(this)'>View</button>,<button class='btn btn-sm btn-primary' value=9922998230  onclick = 'freeze(this)'> FREEZE </button>
Siddharth Bhonge,25/07/2020,-,Full Time,123456,Rejected,-,No,<button class='btn btn-sm btn-primary' data-toggle='modal' data-target='#myModal' value=9922998230  onclick = 'modal_fun(this)'>View</button>,<button class='btn btn-sm btn-primary' value=9922998230  onclick = 'freeze(this)'> FREEZE </button>
Siddharth Bhonge,25/07/2020,-,Full Time,123456,Rejected,-,No,<button class='btn btn-sm btn-primary' data-toggle='modal' data-target='#myModal' value=9922998230  onclick = 'modal_fun(this)'>View</button>,<button class='btn btn-sm btn-primary' value=9922998230  onclick = 'freeze(this)'> FREEZE </button>
Siddharth Bhonge,25/07/2020,-,Full Time,123456,Rejected,-,No,<button class='btn btn-sm btn-primary' data-toggle='modal' data-target='#myModal' value=9922998230  onclick = 'modal_fun(this)'>View</button>,<button class='btn btn-sm btn-primary' value=9922998230  onclick = 'freeze(this)'> FREEZE </button>
